\BOOKMARK [1][-]{section.1}{Introduction}{}% 1
\BOOKMARK [1][-]{section.2}{UML}{}% 2
\BOOKMARK [2][-]{subsection.2.1}{UML diagram types}{section.2}% 3
\BOOKMARK [3][-]{subsubsection.2.1.1}{Structure Diagrams}{subsection.2.1}% 4
\BOOKMARK [3][-]{subsubsection.2.1.2}{Behavior Diagrams}{subsection.2.1}% 5
\BOOKMARK [3][-]{subsubsection.2.1.3}{Interaction Diagrams}{subsection.2.1}% 6
\BOOKMARK [2][-]{subsection.2.2}{DSML using UML}{section.2}% 7
\BOOKMARK [3][-]{subsubsection.2.2.1}{UML profiles}{subsection.2.2}% 8
\BOOKMARK [1][-]{section.3}{Papyrus}{}% 9
\BOOKMARK [2][-]{subsection.3.1}{About}{section.3}% 10
\BOOKMARK [2][-]{subsection.3.2}{Functionality}{section.3}% 11
\BOOKMARK [3][-]{subsubsection.3.2.1}{UML modelling}{subsection.3.2}% 12
\BOOKMARK [3][-]{subsubsection.3.2.2}{DSML}{subsection.3.2}% 13
\BOOKMARK [1][-]{section.4}{Conclusion: building a railway DSML in Papyrus}{}% 14
