\relax 
\providecommand\hyper@newdestlabel[2]{}
\providecommand\HyperFirstAtBeginDocument{\AtBeginDocument}
\HyperFirstAtBeginDocument{\ifx\hyper@anchor\@undefined
\global\let\oldcontentsline\contentsline
\gdef\contentsline#1#2#3#4{\oldcontentsline{#1}{#2}{#3}}
\global\let\oldnewlabel\newlabel
\gdef\newlabel#1#2{\newlabelxx{#1}#2}
\gdef\newlabelxx#1#2#3#4#5#6{\oldnewlabel{#1}{{#2}{#3}}}
\AtEndDocument{\ifx\hyper@anchor\@undefined
\let\contentsline\oldcontentsline
\let\newlabel\oldnewlabel
\fi}
\fi}
\global\let\hyper@last\relax 
\gdef\HyperFirstAtBeginDocument#1{#1}
\providecommand\HyField@AuxAddToFields[1]{}
\providecommand\HyField@AuxAddToCoFields[2]{}
\bibstyle{elsarticle-num}
\citation{*}
\@writefile{toc}{\contentsline {section}{\numberline {1}Introduction}{1}{section.1}}
\citation{book:uml_distilled}
\@writefile{toc}{\contentsline {section}{\numberline {2}UML}{2}{section.2}}
\@writefile{toc}{\contentsline {subsection}{\numberline {2.1}UML diagram types}{2}{subsection.2.1}}
\@writefile{toc}{\contentsline {subsubsection}{\numberline {2.1.1}Structure Diagrams}{3}{subsubsection.2.1.1}}
\@writefile{toc}{\contentsline {subsubsection}{\numberline {2.1.2}Behavior Diagrams}{3}{subsubsection.2.1.2}}
\@writefile{toc}{\contentsline {subsubsection}{\numberline {2.1.3}Interaction Diagrams}{3}{subsubsection.2.1.3}}
\citation{website:uml_diagrams_org_profile_diagrams}
\@writefile{toc}{\contentsline {subsection}{\numberline {2.2}DSML using UML}{4}{subsection.2.2}}
\@writefile{toc}{\contentsline {subsubsection}{\numberline {2.2.1}UML profiles}{4}{subsubsection.2.2.1}}
\@writefile{lof}{\contentsline {figure}{\numberline {1}{\ignorespaces \textit  {Computer} is a stereotype of the Metaclass \textit  {Device}.\cite  {website:uml_diagrams_org_profile_diagrams}}}{4}{figure.1}}
\citation{website:uml_diagrams_org_profile_diagrams}
\@writefile{lof}{\contentsline {figure}{\numberline {2}{\ignorespaces A custom icon that is given given to the stereotype.\cite  {website:uml_diagrams_org_profile_diagrams}}}{5}{figure.2}}
\@writefile{toc}{\contentsline {section}{\numberline {3}Papyrus}{5}{section.3}}
\@writefile{toc}{\contentsline {subsection}{\numberline {3.1}About}{5}{subsection.3.1}}
\citation{website:newsletter}
\@writefile{toc}{\contentsline {subsection}{\numberline {3.2}Functionality}{6}{subsection.3.2}}
\@writefile{toc}{\contentsline {subsubsection}{\numberline {3.2.1}UML modelling}{6}{subsubsection.3.2.1}}
\@writefile{lof}{\contentsline {figure}{\numberline {3}{\ignorespaces UML diagram in Papyrus}}{6}{figure.3}}
\citation{website:newsletter}
\citation{documentation:Papyrus_User_Guide_About_UML_Profiling}
\@writefile{toc}{\contentsline {subsubsection}{\numberline {3.2.2}DSML}{7}{subsubsection.3.2.2}}
\@writefile{lof}{\contentsline {figure}{\numberline {4}{\ignorespaces Customized tool and icons.\cite  {website:newsletter}}}{7}{figure.4}}
\@writefile{toc}{\contentsline {section}{\numberline {4}Conclusion: building a railway DSML in Papyrus}{8}{section.4}}
\bibdata{mybibfile}
\bibcite{book:uml_distilled}{{1}{}{{}}{{}}}
\bibcite{website:OMG_what_is_uml}{{2}{}{{}}{{}}}
\bibcite{website:uml_website}{{3}{}{{}}{{}}}
\bibcite{website:Papyrus_website}{{4}{}{{}}{{}}}
\bibcite{documentation:Papyrus_User_Guide_About_UML_Profiling}{{5}{}{{}}{{}}}
\bibcite{presentation:The_UML_Profile_technology}{{6}{}{{}}{{}}}
\bibcite{website:uml_diagrams_org_profile_diagrams}{{7}{}{{}}{{}}}
\bibcite{website:newsletter}{{8}{}{{}}{{}}}
\bibcite{website:uml_profiles_technologyUK}{{9}{}{{}}{{}}}
\providecommand\NAT@force@numbers{}\NAT@force@numbers
